{
  "version": "14.0.0",
  "vulnerabilities": [
    {
      "id": "d8314591c48897c7816e74eb52c139a653915c82dd231ddc0217f486c4595f6d",
      "category": "sast",
      "name": "Hard coded key",
      "message": "Hard coded key",
      "description": "Hard coded cryptographic key found",
      "cve": "102ac67e0975ecec02a056008e0faad8:HARD_CODE_KEY:scala-sbt/src/main/scala/example/Main.scala:12",
      "severity": "Medium",
      "confidence": "High",
      "scanner": {
        "id": "find_sec_bugs",
        "name": "Find Security Bugs"
      },
      "location": {
        "file": "scala-sbt/src/main/scala/example/Main.scala",
        "start_line": 12,
        "class": "example.Main$",
        "method": "getBytes"
      },
      "identifiers": [
        {
          "type": "find_sec_bugs_type",
          "name": "Find Security Bugs-HARD_CODE_KEY",
          "value": "HARD_CODE_KEY",
          "url": "https://find-sec-bugs.github.io/bugs.htm#HARD_CODE_KEY"
        },
        {
          "type": "cwe",
          "name": "CWE-321",
          "value": "321",
          "url": "https://cwe.mitre.org/data/definitions/321.html"
        }
      ]
    },
    {
      "id": "4bf5003f967833e94cf1d8fe8d50effd469740b970f07c7e3bf1a2a21172710a",
      "category": "sast",
      "name": "Cipher with no integrity",
      "message": "Cipher with no integrity",
      "description": "The cipher does not provide data integrity",
      "cve": "22638f20786f979911c3f22f9b30f24f:CIPHER_INTEGRITY:scala-sbt/src/main/scala/example/Main.scala:13",
      "severity": "Medium",
      "confidence": "High",
      "scanner": {
        "id": "find_sec_bugs",
        "name": "Find Security Bugs"
      },
      "location": {
        "file": "scala-sbt/src/main/scala/example/Main.scala",
        "start_line": 13,
        "class": "example.Main$",
        "method": "main"
      },
      "identifiers": [
        {
          "type": "find_sec_bugs_type",
          "name": "Find Security Bugs-CIPHER_INTEGRITY",
          "value": "CIPHER_INTEGRITY",
          "url": "https://find-sec-bugs.github.io/bugs.htm#CIPHER_INTEGRITY"
        },
        {
          "type": "cwe",
          "name": "CWE-353",
          "value": "353",
          "url": "https://cwe.mitre.org/data/definitions/353.html"
        }
      ]
    },
    {
      "id": "bf2edb6bb92a654732f44db4027e2f6df424b8ed3338db1ed6ff255054e4437e",
      "category": "sast",
      "name": "Predictable pseudorandom number generator",
      "message": "Predictable pseudorandom number generator",
      "description": "This random generator (java.util.Random) is predictable",
      "cve": "818bf5dacb291e15d9e6dc3c5ac32178:PREDICTABLE_RANDOM:java-gradle/src/main/java/com/gitlab/security_products/tests/App.java:47",
      "severity": "Medium",
      "confidence": "Medium",
      "scanner": {
        "id": "find_sec_bugs",
        "name": "Find Security Bugs"
      },
      "location": {
        "file": "java-gradle/src/main/java/com/gitlab/security_products/tests/App.java",
        "start_line": 47,
        "class": "com.gitlab.security_products.tests.App",
        "method": "generateSecretToken2"
      },
      "identifiers": [
        {
          "type": "find_sec_bugs_type",
          "name": "Find Security Bugs-PREDICTABLE_RANDOM",
          "value": "PREDICTABLE_RANDOM",
          "url": "https://find-sec-bugs.github.io/bugs.htm#PREDICTABLE_RANDOM"
        },
        {
          "type": "cwe",
          "name": "CWE-330",
          "value": "330",
          "url": "https://cwe.mitre.org/data/definitions/330.html"
        }
      ]
    },
    {
      "id": "44c6f3e91a4d67e33b97c35cc907fb397ddca2e1847c5a5b7050d55ad4172192",
      "category": "sast",
      "name": "Predictable pseudorandom number generator",
      "message": "Predictable pseudorandom number generator",
      "description": "This random generator (java.util.Random) is predictable",
      "cve": "818bf5dacb291e15d9e6dc3c5ac32178:PREDICTABLE_RANDOM:java-groovy/app/src/main/groovy/com/gitlab/security_products/tests/App.groovy:47",
      "severity": "Medium",
      "confidence": "Medium",
      "scanner": {
        "id": "find_sec_bugs",
        "name": "Find Security Bugs"
      },
      "location": {
        "file": "java-groovy/app/src/main/groovy/com/gitlab/security_products/tests/App.groovy",
        "start_line": 47,
        "class": "com.gitlab.security_products.tests.App",
        "method": "generateSecretToken2"
      },
      "identifiers": [
        {
          "type": "find_sec_bugs_type",
          "name": "Find Security Bugs-PREDICTABLE_RANDOM",
          "value": "PREDICTABLE_RANDOM",
          "url": "https://find-sec-bugs.github.io/bugs.htm#PREDICTABLE_RANDOM"
        },
        {
          "type": "cwe",
          "name": "CWE-330",
          "value": "330",
          "url": "https://cwe.mitre.org/data/definitions/330.html"
        }
      ]
    },
    {
      "id": "aada84faad5ec9843c5bfa636db6c4e67dc5804f4e7235d5f5ca257d838367aa",
      "category": "sast",
      "name": "Predictable pseudorandom number generator",
      "message": "Predictable pseudorandom number generator",
      "description": "This random generator (java.util.Random) is predictable",
      "cve": "818bf5dacb291e15d9e6dc3c5ac32178:PREDICTABLE_RANDOM:java-maven/src/main/java/com/gitlab/security_products/tests/App.java:47",
      "severity": "Medium",
      "confidence": "Medium",
      "scanner": {
        "id": "find_sec_bugs",
        "name": "Find Security Bugs"
      },
      "location": {
        "file": "java-maven/src/main/java/com/gitlab/security_products/tests/App.java",
        "start_line": 47,
        "class": "com.gitlab.security_products.tests.App",
        "method": "generateSecretToken2"
      },
      "identifiers": [
        {
          "type": "find_sec_bugs_type",
          "name": "Find Security Bugs-PREDICTABLE_RANDOM",
          "value": "PREDICTABLE_RANDOM",
          "url": "https://find-sec-bugs.github.io/bugs.htm#PREDICTABLE_RANDOM"
        },
        {
          "type": "cwe",
          "name": "CWE-330",
          "value": "330",
          "url": "https://cwe.mitre.org/data/definitions/330.html"
        }
      ]
    },
    {
      "id": "ee144949516f70de35175e4ae250c8a1c11f759f7dfbf70b7e4af2761d5cc34c",
      "category": "sast",
      "name": "Cipher with no integrity",
      "message": "Cipher with no integrity",
      "description": "The cipher does not provide data integrity",
      "cve": "e6449b89335daf53c0db4c0219bc1634:CIPHER_INTEGRITY:java-gradle/src/main/java/com/gitlab/security_products/tests/App.java:29",
      "severity": "Medium",
      "confidence": "High",
      "scanner": {
        "id": "find_sec_bugs",
        "name": "Find Security Bugs"
      },
      "location": {
        "file": "java-gradle/src/main/java/com/gitlab/security_products/tests/App.java",
        "start_line": 29,
        "class": "com.gitlab.security_products.tests.App",
        "method": "insecureCypher"
      },
      "identifiers": [
        {
          "type": "find_sec_bugs_type",
          "name": "Find Security Bugs-CIPHER_INTEGRITY",
          "value": "CIPHER_INTEGRITY",
          "url": "https://find-sec-bugs.github.io/bugs.htm#CIPHER_INTEGRITY"
        },
        {
          "type": "cwe",
          "name": "CWE-353",
          "value": "353",
          "url": "https://cwe.mitre.org/data/definitions/353.html"
        }
      ]
    },
    {
      "id": "07695ff94646cfb852211de3e3414378edd9bc1ba75dd2960a2a8bcf880c40bf",
      "category": "sast",
      "name": "Cipher with no integrity",
      "message": "Cipher with no integrity",
      "description": "The cipher does not provide data integrity",
      "cve": "e6449b89335daf53c0db4c0219bc1634:CIPHER_INTEGRITY:java-groovy/app/src/main/groovy/com/gitlab/security_products/tests/App.groovy:29",
      "severity": "Medium",
      "confidence": "High",
      "scanner": {
        "id": "find_sec_bugs",
        "name": "Find Security Bugs"
      },
      "location": {
        "file": "java-groovy/app/src/main/groovy/com/gitlab/security_products/tests/App.groovy",
        "start_line": 29,
        "class": "com.gitlab.security_products.tests.App",
        "method": "insecureCypher"
      },
      "identifiers": [
        {
          "type": "find_sec_bugs_type",
          "name": "Find Security Bugs-CIPHER_INTEGRITY",
          "value": "CIPHER_INTEGRITY",
          "url": "https://find-sec-bugs.github.io/bugs.htm#CIPHER_INTEGRITY"
        },
        {
          "type": "cwe",
          "name": "CWE-353",
          "value": "353",
          "url": "https://cwe.mitre.org/data/definitions/353.html"
        }
      ]
    },
    {
      "id": "df0c3e1652e715d4443c38e749ad9b108c89f4dc0918a3c9580432e7cdc195ac",
      "category": "sast",
      "name": "Cipher with no integrity",
      "message": "Cipher with no integrity",
      "description": "The cipher does not provide data integrity",
      "cve": "e6449b89335daf53c0db4c0219bc1634:CIPHER_INTEGRITY:java-maven-multimodules/web/src/main/java/com/gitlab/security_products/tests/App.java:29",
      "severity": "Medium",
      "confidence": "High",
      "scanner": {
        "id": "find_sec_bugs",
        "name": "Find Security Bugs"
      },
      "location": {
        "file": "java-maven-multimodules/web/src/main/java/com/gitlab/security_products/tests/App.java",
        "start_line": 29,
        "class": "com.gitlab.security_products.tests.App",
        "method": "insecureCypher"
      },
      "identifiers": [
        {
          "type": "find_sec_bugs_type",
          "name": "Find Security Bugs-CIPHER_INTEGRITY",
          "value": "CIPHER_INTEGRITY",
          "url": "https://find-sec-bugs.github.io/bugs.htm#CIPHER_INTEGRITY"
        },
        {
          "type": "cwe",
          "name": "CWE-353",
          "value": "353",
          "url": "https://cwe.mitre.org/data/definitions/353.html"
        }
      ]
    },
    {
      "id": "61ba304295e03f6e54759da6e03cab90a7bf08930633db56f3bd0ab536f80a88",
      "category": "sast",
      "name": "Cipher with no integrity",
      "message": "Cipher with no integrity",
      "description": "The cipher does not provide data integrity",
      "cve": "e6449b89335daf53c0db4c0219bc1634:CIPHER_INTEGRITY:java-maven/src/main/java/com/gitlab/security_products/tests/App.java:29",
      "severity": "Medium",
      "confidence": "High",
      "scanner": {
        "id": "find_sec_bugs",
        "name": "Find Security Bugs"
      },
      "location": {
        "file": "java-maven/src/main/java/com/gitlab/security_products/tests/App.java",
        "start_line": 29,
        "class": "com.gitlab.security_products.tests.App",
        "method": "insecureCypher"
      },
      "identifiers": [
        {
          "type": "find_sec_bugs_type",
          "name": "Find Security Bugs-CIPHER_INTEGRITY",
          "value": "CIPHER_INTEGRITY",
          "url": "https://find-sec-bugs.github.io/bugs.htm#CIPHER_INTEGRITY"
        },
        {
          "type": "cwe",
          "name": "CWE-353",
          "value": "353",
          "url": "https://cwe.mitre.org/data/definitions/353.html"
        }
      ]
    },
    {
      "id": "182bfcb8abf332d13c119a7507a4fece4b4520ffcf0d20cb95f369664c3e36cd",
      "category": "sast",
      "name": "Predictable pseudorandom number generator",
      "message": "Predictable pseudorandom number generator",
      "description": "This random generator (java.util.Random) is predictable",
      "cve": "e8ff1d01f74cd372f78da8f5247d3e73:PREDICTABLE_RANDOM:java-gradle/src/main/java/com/gitlab/security_products/tests/App.java:41",
      "severity": "Medium",
      "confidence": "Medium",
      "scanner": {
        "id": "find_sec_bugs",
        "name": "Find Security Bugs"
      },
      "location": {
        "file": "java-gradle/src/main/java/com/gitlab/security_products/tests/App.java",
        "start_line": 41,
        "class": "com.gitlab.security_products.tests.App",
        "method": "generateSecretToken1"
      },
      "identifiers": [
        {
          "type": "find_sec_bugs_type",
          "name": "Find Security Bugs-PREDICTABLE_RANDOM",
          "value": "PREDICTABLE_RANDOM",
          "url": "https://find-sec-bugs.github.io/bugs.htm#PREDICTABLE_RANDOM"
        },
        {
          "type": "cwe",
          "name": "CWE-330",
          "value": "330",
          "url": "https://cwe.mitre.org/data/definitions/330.html"
        }
      ]
    },
    {
      "id": "085ba867e63dc55681996b8b11b1b10cdfb467aaedd028eb30c21bf98e7b720c",
      "category": "sast",
      "name": "Predictable pseudorandom number generator",
      "message": "Predictable pseudorandom number generator",
      "description": "This random generator (java.util.Random) is predictable",
      "cve": "e8ff1d01f74cd372f78da8f5247d3e73:PREDICTABLE_RANDOM:java-groovy/app/src/main/groovy/com/gitlab/security_products/tests/App.groovy:41",
      "severity": "Medium",
      "confidence": "Medium",
      "scanner": {
        "id": "find_sec_bugs",
        "name": "Find Security Bugs"
      },
      "location": {
        "file": "java-groovy/app/src/main/groovy/com/gitlab/security_products/tests/App.groovy",
        "start_line": 41,
        "class": "com.gitlab.security_products.tests.App",
        "method": "generateSecretToken1"
      },
      "identifiers": [
        {
          "type": "find_sec_bugs_type",
          "name": "Find Security Bugs-PREDICTABLE_RANDOM",
          "value": "PREDICTABLE_RANDOM",
          "url": "https://find-sec-bugs.github.io/bugs.htm#PREDICTABLE_RANDOM"
        },
        {
          "type": "cwe",
          "name": "CWE-330",
          "value": "330",
          "url": "https://cwe.mitre.org/data/definitions/330.html"
        }
      ]
    },
    {
      "id": "23fc2b125e8e98adad1b5ce033c15dd645f05d8f66c26487048749adb5df1d17",
      "category": "sast",
      "name": "Predictable pseudorandom number generator",
      "message": "Predictable pseudorandom number generator",
      "description": "This random generator (java.util.Random) is predictable",
      "cve": "e8ff1d01f74cd372f78da8f5247d3e73:PREDICTABLE_RANDOM:java-maven-multimodules/web/src/main/java/com/gitlab/security_products/tests/App.java:41",
      "severity": "Medium",
      "confidence": "Medium",
      "scanner": {
        "id": "find_sec_bugs",
        "name": "Find Security Bugs"
      },
      "location": {
        "file": "java-maven-multimodules/web/src/main/java/com/gitlab/security_products/tests/App.java",
        "start_line": 41,
        "class": "com.gitlab.security_products.tests.App",
        "method": "generateSecretToken1"
      },
      "identifiers": [
        {
          "type": "find_sec_bugs_type",
          "name": "Find Security Bugs-PREDICTABLE_RANDOM",
          "value": "PREDICTABLE_RANDOM",
          "url": "https://find-sec-bugs.github.io/bugs.htm#PREDICTABLE_RANDOM"
        },
        {
          "type": "cwe",
          "name": "CWE-330",
          "value": "330",
          "url": "https://cwe.mitre.org/data/definitions/330.html"
        }
      ]
    },
    {
      "id": "857622a25dd0e0335351c724bb679223cff9037c5c27a76f1924af2302d00e28",
      "category": "sast",
      "name": "Predictable pseudorandom number generator",
      "message": "Predictable pseudorandom number generator",
      "description": "This random generator (java.util.Random) is predictable",
      "cve": "e8ff1d01f74cd372f78da8f5247d3e73:PREDICTABLE_RANDOM:java-maven/src/main/java/com/gitlab/security_products/tests/App.java:41",
      "severity": "Medium",
      "confidence": "Medium",
      "scanner": {
        "id": "find_sec_bugs",
        "name": "Find Security Bugs"
      },
      "location": {
        "file": "java-maven/src/main/java/com/gitlab/security_products/tests/App.java",
        "start_line": 41,
        "class": "com.gitlab.security_products.tests.App",
        "method": "generateSecretToken1"
      },
      "identifiers": [
        {
          "type": "find_sec_bugs_type",
          "name": "Find Security Bugs-PREDICTABLE_RANDOM",
          "value": "PREDICTABLE_RANDOM",
          "url": "https://find-sec-bugs.github.io/bugs.htm#PREDICTABLE_RANDOM"
        },
        {
          "type": "cwe",
          "name": "CWE-330",
          "value": "330",
          "url": "https://cwe.mitre.org/data/definitions/330.html"
        }
      ]
    },
    {
      "id": "459b324c9c89818e2952ea92b11b5c21c77e3f6bee9e3d5b19075e2c1d0e0077",
      "category": "sast",
      "name": "ECB mode is insecure",
      "message": "ECB mode is insecure",
      "description": "The cipher uses ECB mode, which provides poor confidentiality for encrypted data",
      "cve": "ea0f905fc76f2739d5f10a1fd1e37a10:ECB_MODE:java-gradle/src/main/java/com/gitlab/security_products/tests/App.java:29",
      "severity": "Medium",
      "confidence": "High",
      "scanner": {
        "id": "find_sec_bugs",
        "name": "Find Security Bugs"
      },
      "location": {
        "file": "java-gradle/src/main/java/com/gitlab/security_products/tests/App.java",
        "start_line": 29,
        "class": "com.gitlab.security_products.tests.App",
        "method": "insecureCypher"
      },
      "identifiers": [
        {
          "type": "find_sec_bugs_type",
          "name": "Find Security Bugs-ECB_MODE",
          "value": "ECB_MODE",
          "url": "https://find-sec-bugs.github.io/bugs.htm#ECB_MODE"
        },
        {
          "type": "cwe",
          "name": "CWE-327",
          "value": "327",
          "url": "https://cwe.mitre.org/data/definitions/327.html"
        }
      ]
    },
    {
      "id": "0bc2dc0addaae947447d86198553165ee0e8612e8c8bc1df4b84e313ad242bf4",
      "category": "sast",
      "name": "ECB mode is insecure",
      "message": "ECB mode is insecure",
      "description": "The cipher uses ECB mode, which provides poor confidentiality for encrypted data",
      "cve": "ea0f905fc76f2739d5f10a1fd1e37a10:ECB_MODE:java-groovy/app/src/main/groovy/com/gitlab/security_products/tests/App.groovy:29",
      "severity": "Medium",
      "confidence": "High",
      "scanner": {
        "id": "find_sec_bugs",
        "name": "Find Security Bugs"
      },
      "location": {
        "file": "java-groovy/app/src/main/groovy/com/gitlab/security_products/tests/App.groovy",
        "start_line": 29,
        "class": "com.gitlab.security_products.tests.App",
        "method": "insecureCypher"
      },
      "identifiers": [
        {
          "type": "find_sec_bugs_type",
          "name": "Find Security Bugs-ECB_MODE",
          "value": "ECB_MODE",
          "url": "https://find-sec-bugs.github.io/bugs.htm#ECB_MODE"
        },
        {
          "type": "cwe",
          "name": "CWE-327",
          "value": "327",
          "url": "https://cwe.mitre.org/data/definitions/327.html"
        }
      ]
    },
    {
      "id": "97c36d2a34d42f06e916d9a4452f1fc4d851afe89fb28aadbacd84bbe5fbb135",
      "category": "sast",
      "name": "ECB mode is insecure",
      "message": "ECB mode is insecure",
      "description": "The cipher uses ECB mode, which provides poor confidentiality for encrypted data",
      "cve": "ea0f905fc76f2739d5f10a1fd1e37a10:ECB_MODE:java-maven-multimodules/web/src/main/java/com/gitlab/security_products/tests/App.java:29",
      "severity": "Medium",
      "confidence": "High",
      "scanner": {
        "id": "find_sec_bugs",
        "name": "Find Security Bugs"
      },
      "location": {
        "file": "java-maven-multimodules/web/src/main/java/com/gitlab/security_products/tests/App.java",
        "start_line": 29,
        "class": "com.gitlab.security_products.tests.App",
        "method": "insecureCypher"
      },
      "identifiers": [
        {
          "type": "find_sec_bugs_type",
          "name": "Find Security Bugs-ECB_MODE",
          "value": "ECB_MODE",
          "url": "https://find-sec-bugs.github.io/bugs.htm#ECB_MODE"
        },
        {
          "type": "cwe",
          "name": "CWE-327",
          "value": "327",
          "url": "https://cwe.mitre.org/data/definitions/327.html"
        }
      ]
    },
    {
      "id": "531a90e89e9c8867bdf8b02f7f50102c12fb81f4bf4fb35b5c031d98a935b55f",
      "category": "sast",
      "name": "ECB mode is insecure",
      "message": "ECB mode is insecure",
      "description": "The cipher uses ECB mode, which provides poor confidentiality for encrypted data",
      "cve": "ea0f905fc76f2739d5f10a1fd1e37a10:ECB_MODE:java-maven/src/main/java/com/gitlab/security_products/tests/App.java:29",
      "severity": "Medium",
      "confidence": "High",
      "scanner": {
        "id": "find_sec_bugs",
        "name": "Find Security Bugs"
      },
      "location": {
        "file": "java-maven/src/main/java/com/gitlab/security_products/tests/App.java",
        "start_line": 29,
        "class": "com.gitlab.security_products.tests.App",
        "method": "insecureCypher"
      },
      "identifiers": [
        {
          "type": "find_sec_bugs_type",
          "name": "Find Security Bugs-ECB_MODE",
          "value": "ECB_MODE",
          "url": "https://find-sec-bugs.github.io/bugs.htm#ECB_MODE"
        },
        {
          "type": "cwe",
          "name": "CWE-327",
          "value": "327",
          "url": "https://cwe.mitre.org/data/definitions/327.html"
        }
      ]
    }
  ],
  "scan": {
    "scanner": {
      "id": "find_sec_bugs",
      "name": "Find Security Bugs",
      "url": "https://spotbugs.github.io",
      "vendor": {
        "name": "GitLab"
      },
      "version": "4.5.3"
    },
    "type": "sast",
    "start_time": "2020-12-05T05:03:31",
    "end_time": "2020-12-05T05:08:50",
    "status": "success"
  }
}
